\relax 
\citation{diode}
\citation{Moore}
\citation{nojunct}
\citation{singmol}
\citation{NSgraphene}
\citation{5nm}
\citation{nojunct}
\citation{grapheneqd}
\citation{sub-10nm}
\citation{MOSFET-tunnel}
\citation{MOSFET-tunnel}
\citation{Marcus}
\citation{e-transfer}
\citation{RRKM}
\citation{Marcus}
\citation{Marcus}
\citation{RRKM}
\newlabel{FirstPage}{{}{1}{}{}{}}
\@writefile{toc}{\contentsline {title}{Molecular Rectification by Means of Environmental Asymmetry}{1}{}}
\@writefile{toc}{\contentsline {abstract}{Abstract}{1}{}}
\newlabel{sec:level1}{{I}{1}{}{}{}}
\@writefile{toc}{\contentsline {section}{\numberline {I}Lit Review}{1}{}}
\newlabel{sec:level2}{{I\tmspace  +\thinmuskip {.1667em}A}{1}{}{}{}}
\@writefile{toc}{\contentsline {subsection}{\numberline {A}Introduction}{1}{}}
\newlabel{sec:level2}{{I\tmspace  +\thinmuskip {.1667em}B}{1}{}{}{}}
\@writefile{toc}{\contentsline {subsection}{\numberline {B}Marcus Theory}{1}{}}
\citation{RRKM}
\citation{Marcus}
\citation{book}
\newlabel{sec:level2}{{I\tmspace  +\thinmuskip {.1667em}C}{2}{}{}{}}
\@writefile{toc}{\contentsline {subsection}{\numberline {C}Huckel Method}{2}{}}
\citation{diode}
\citation{singmol}
\citation{reso}
\citation{linker}
\citation{wired}
\citation{diode}
\citation{book}
\citation{stern}
\citation{book}
\newlabel{sec:level1}{{II}{3}{}{}{}}
\@writefile{toc}{\contentsline {section}{\numberline {II}Making a Rectifier}{3}{}}
\newlabel{sec:level2}{{II\tmspace  +\thinmuskip {.1667em}A}{3}{}{}{}}
\@writefile{toc}{\contentsline {subsection}{\numberline {A}Electric Double Layer}{3}{}}
\newlabel{sec:level2}{{II\tmspace  +\thinmuskip {.1667em}B}{3}{}{}{}}
\@writefile{toc}{\contentsline {subsection}{\numberline {B}Stark shift}{3}{}}
\citation{T2}
\citation{Hydro}
\citation{diode}
\citation{diode}
\citation{T2}
\citation{STM-bj}
\@writefile{toc}{\contentsline {subsection}{\numberline {C}Rectification}{4}{}}
\citation{diode}
\citation{Landauer}
\citation{diode}
\citation{diode}
\citation{diode}
\@writefile{lof}{\contentsline {figure}{\numberline {1}{\ignorespaces Energy level diagram illustrating the rectification mechanism for a LUMO conducting molecular junction. Adapted from \cite  {diode} \textbf  {a)} Zero-bias, molecular resonance with peak energy ε relative to the tip (T) and substrate (S) Fermi levels EF. \textbf  {b)} In polar media, when the tip is biased negatively relative to the substrate, the molecular resonance is at $\varepsilon − eV$ relative to the tip chemical potential and at ε relative to the substrate chemical potential (here, $\alpha $ is taken to be 0.5). For this system, a large area (shaded green) of the resonance falls within the bias window and the current is high. \textbf  {c)} When the tip is biased positively relative to the substrate, the molecular resonance again remains pinned to the substrate chemical potential, but is at $\varepsilon + eV$ relative to the tip chemical potential. A small area (shaded red) of the resonance falls within the bias window and the current is low. \textbf  {d)} A similar schematic illustrating level alignment in a nonpolar solvent $(\alpha = 0)$ with the tip biased negatively relative to the substrate. Here, the resonance does not shift in response to the applied bias, while both tip and substrate chemical potentials shift relative to the resonance position. The area under the resonance that falls within the bias window is independent of the bias polarity.}}{5}{}}
\newlabel{fig:graphs}{{1}{5}{}{}{}}
\citation{diode}
\citation{DNA}
\citation{diode}
\citation{NSgraphene}
\citation{sub-10nm}
\citation{wired}
\@writefile{lof}{\contentsline {figure}{\numberline {2}{\ignorespaces High rectification ratios in TDOn junctions. From \cite  {diode} \textbf  {a)} Average I–Vs for TDOn (with n = 3–5) measured in PC. Inset: Rectification ratio (Ion/Ioff) versus magnitude of applied voltage for I–V curves, showing ratios of ∼4 at 0.6 V for TDO3, ∼90 at 0.42 V for TDO4 and ∼200 at 0.37 V for TDO5. Also note that the junctions rupture when the bias is increased beyond a molecule-dependent critical voltage (−0.65 V for TDO3, −0.42 V for TDO4 and −0.39 V for TDO5). \textbf  {b)} Average I–Vs for TDO3–5 measured in TCB. Note that the I–V curves show the absolute value of current, for clarity. Junctions formed in TCB are typically able to withstand twice the voltage of those in PC, becoming unstable and rupturing beyond 1.1 V..}}{6}{}}
\newlabel{fig:data}{{2}{6}{}{}{}}
\@writefile{toc}{\contentsline {section}{\numberline {III}Discussion}{6}{}}
\bibcite{diode}{{1}{}{{}}{{}}}
\bibcite{Moore}{{2}{}{{}}{{}}}
\bibcite{nojunct}{{3}{}{{}}{{}}}
\bibcite{singmol}{{4}{}{{}}{{}}}
\bibcite{NSgraphene}{{5}{}{{}}{{}}}
\bibcite{5nm}{{6}{}{{}}{{}}}
\bibcite{grapheneqd}{{7}{}{{}}{{}}}
\bibcite{sub-10nm}{{8}{}{{}}{{}}}
\bibcite{MOSFET-tunnel}{{9}{}{{}}{{}}}
\bibcite{Marcus}{{10}{}{{}}{{}}}
\bibcite{e-transfer}{{11}{}{{}}{{}}}
\bibcite{RRKM}{{12}{}{{}}{{}}}
\bibcite{book}{{13}{}{{}}{{}}}
\bibcite{reso}{{14}{}{{}}{{}}}
\bibcite{linker}{{15}{}{{}}{{}}}
\bibcite{wired}{{16}{}{{}}{{}}}
\bibcite{stern}{{17}{}{{}}{{}}}
\bibcite{T2}{{18}{}{{}}{{}}}
\bibcite{Hydro}{{19}{}{{}}{{}}}
\bibcite{STM-bj}{{20}{}{{}}{{}}}
\bibcite{Landauer}{{21}{}{{}}{{}}}
\bibcite{DNA}{{22}{}{{}}{{}}}
\bibdata{nanopaperNotes}
\bibstyle{apsrev4-1}
\citation{REVTEX41Control}
\citation{apsrev41Control}
\providecommand\NAT@force@numbers{}\NAT@force@numbers
\@writefile{toc}{\contentsline {section}{\numberline {}References}{7}{}}
\@writefile{toc}{\contentsline {section}{\numberline {}Bibliography}{7}{}}
\newlabel{LastBibItem}{{22}{7}{}{}{}}
\newlabel{LastPage}{{}{7}{}{}{}}
